<svg width="24" height="24" viewBox="0 0 24 24" fill="none" xmlns="http://www.w3.org/2000/svg">
<path d="M19.6972 16.9688H4.30346C3.84174 16.9688 3.58393 16.4813 3.86987 16.1484L11.5667 7.22344C11.7871 6.96797 12.2113 6.96797 12.4339 7.22344L20.1308 16.1484C20.4167 16.4813 20.1589 16.9688 19.6972 16.9688Z" fill="white"/>
</svg>
